Getting Started with bbr • bbr
…
To see how to load summaries of multiple models to an easy-to-read
tibble, see the Creating
a Model Summary Log vignette.

You can also use the nm_join()
function to load the input data and any output tables from your model
into a single tibble.

join_df <- nm_join(mod1) 
join_df %>% 
  select(ID, TIME, DV, CL, V, NPDE, CWRES)
#> # A tibble: 779 × 7
#>       ID  TIME    DV    CL     V  NPDE CWRES
#>    <dbl> <dbl> <dbl> <dbl> <dbl> <dbl> <dbl>
#>  1     1  0     1.22  43.4  463. 0.185 0.291
#>  2     1  0.25 12.6   43.4  463. 2.47  3.01 
#>  3     1  0.5  11.2   43.4  463. 2.71  2.68 
#>  4     1  0.75 17.7   43.4  463. 2.94  4.24 
#>  5     1  1    21.9   43.4  463. 2.94  5.25 
#>  6     1  1.25 16.2   43.4  463. 2.94  3.88 
#>  7     1  1.5  18.7   43.4  463. 2.94  4.47 
#>  8     1  1.75 23.8   43.4  463. 2.94  5.69 
#>  9     1  2    16.5   43.4  463. 2.94  3.94 
#> 10     1  2.25 17.3   43.4  463. 2.94  4.15 
#> # ℹ 769 more rows
…
